<svg width="28" height="25" viewBox="0 0 28 25" fill="none" xmlns="http://www.w3.org/2000/svg">
<path d="M26 23.5556V12.8151C26 12.3649 26.3649 12 26.8151 12C27.5696 12 27.919 11.0632 27.3489 10.569L17.6647 2.17606C15.5615 0.353341 12.4385 0.35334 10.3353 2.17606L0.651171 10.569C0.0810031 11.0632 0.430476 12 1.18497 12C1.63512 12 2.00003 12.3649 2.00003 12.8151V23.5556C2.00003 24.4222 2.60003 25 3.50003 25H5.94447C8.73658 25 11 22.7366 11 19.9444V17.8889C11 16.232 12.3431 14.8889 14 14.8889C15.6569 14.8889 17 16.232 17 17.8889V19.9444C17 22.7366 19.2634 25 22.0556 25H24.5C25.4 25 26 24.4222 26 23.5556Z" fill="#9697B5"/>
</svg>
