<svg width="40" height="40" viewBox="0 0 40 40" fill="none" xmlns="http://www.w3.org/2000/svg">
<rect width="40" height="40" rx="20" fill="#FBFF22"/>
<path d="M14.1536 28.2589L15.9159 30.0463L25.8059 20.1464L16.0042 10.1494L14.2342 11.9193L22.2835 20.129L14.1536 28.2589Z" fill="#34407D"/>
</svg>
